<!-- Generated by IcoMoon.io -->
<svg version="1.1" id="Layer_1" xmlns="http://www.w3.org/2000/svg" xmlns:xlink="http://www.w3.org/1999/xlink" x="0px" y="0px"
	width="24" height="24" viewBox="0 0 32 32" style="enable-background:new 0 0 32 32;" xml:space="preserve">
<title>chevron-left</title>
<path d="M20.96 6.272l-9.728 9.728 9.728 9.728c0.512 0.512 0.512 1.344 0 1.888s-1.376 0.512-1.888 0l-10.688-10.688c-0.512-0.512-0.512-1.344 0-1.888l10.688-10.656c0.512-0.512 1.344-0.512 1.888 0s0.512 1.376 0 1.888z"></path>
</svg>
