<!-- Generated by IcoMoon.io -->
<svg version="1.1" id="Layer_1" xmlns="http://www.w3.org/2000/svg" xmlns:xlink="http://www.w3.org/1999/xlink" x="0px" y="0px"
	width="24" height="24" viewBox="0 0 32 32" style="enable-background:new 0 0 32 32;" xml:space="preserve">
<title>form-caution</title>
<path d="M17.952 6.176l9.44 16.96c1.056 1.92 0.16 3.488-2.048 3.488h-18.688c-2.208 0-3.104-1.568-2.048-3.488l9.44-16.96c1.088-1.952 2.816-1.952 3.904 0zM14.656 12v6.656c0 0.768 0.608 1.344 1.344 1.344s1.344-0.608 1.344-1.344v-6.656c0-0.736-0.608-1.344-1.344-1.344s-1.344 0.608-1.344 1.344zM14.656 22.656c0 0.736 0.608 1.344 1.344 1.344s1.344-0.608 1.344-1.344c0-0.736-0.608-1.312-1.344-1.312s-1.344 0.576-1.344 1.312z"></path>
</svg>
