<!-- Generated by IcoMoon.io -->
<svg version="1.1" id="Layer_1" xmlns="http://www.w3.org/2000/svg" xmlns:xlink="http://www.w3.org/1999/xlink" x="0px" y="0px"
	width="24" height="24" viewBox="0 0 32 32" style="enable-background:new 0 0 32 32;" xml:space="preserve">
<title>form-check-on</title>
<path d="M5.344 0h21.312c2.944 0 5.344 2.4 5.344 5.344v21.312c0 2.944-2.4 5.344-5.344 5.344h-21.312c-2.944 0-5.344-2.4-5.344-5.344v-21.312c0-2.944 2.4-5.344 5.344-5.344zM23.616 11.328c-0.544-0.544-1.216-0.544-1.76 0 0 0 0 0 0 0l-7.84 7.872-3.072-3.072c-0.544-0.544-1.216-0.544-1.728 0 0 0 0 0 0 0-0.544 0.544-0.544 1.216 0 1.728 0 0 0 0 0 0l4 3.872c0.256 0.256 0.512 0.416 0.928 0.416 0.384 0 0.672-0.16 0.928-0.416l8.672-8.672c0.384-0.384 0.384-1.184-0.128-1.728z"></path>
</svg>
