<!-- Generated by IcoMoon.io -->
<svg version="1.1" id="Layer_1" xmlns="http://www.w3.org/2000/svg" xmlns:xlink="http://www.w3.org/1999/xlink" x="0px" y="0px"
	width="24" height="24" viewBox="0 0 32 32" style="enable-background:new 0 0 32 32;" xml:space="preserve">
<title>night</title>
<path d="M14.848 17.088c-2.976-2.976-3.84-7.36-2.464-11.168-4.256 1.536-7.2 5.664-7.040 10.368 0.16 5.632 4.704 10.144 10.336 10.336 4.704 0.128 8.832-2.816 10.368-7.040-3.808 1.376-8.192 0.48-11.2-2.496zM29.28 17.184c-0.64 7.008-6.656 12.32-13.696 12.096s-12.704-5.888-12.896-12.928c-0.224-7.040 5.056-13.024 12.096-13.696 1.152-0.096 1.856 1.216 1.184 2.144-2.368 3.168-2.016 7.616 0.768 10.4s7.232 3.136 10.432 0.768c0.928-0.672 2.208 0.064 2.112 1.216z"></path>
</svg>
