<!-- Generated by IcoMoon.io -->
<svg version="1.1" id="Layer_1" xmlns="http://www.w3.org/2000/svg" xmlns:xlink="http://www.w3.org/1999/xlink" x="0px" y="0px"
	width="24" height="24" viewBox="0 0 32 32" style="enable-background:new 0 0 32 32;" xml:space="preserve">
<title>plus</title>
<path d="M17.344 14.656h5.312c0.736 0 1.344 0.608 1.344 1.344s-0.608 1.344-1.344 1.344h-5.312v5.312c0 0.736-0.608 1.344-1.344 1.344s-1.344-0.608-1.344-1.344v-5.312h-5.312c-0.736 0-1.344-0.608-1.344-1.344s0.608-1.344 1.344-1.344h5.312v-5.312c0-0.736 0.608-1.344 1.344-1.344s1.344 0.608 1.344 1.344v5.312z"></path>
</svg>
