<!-- Generated by IcoMoon.io -->
<svg version="1.1" id="Layer_1" xmlns="http://www.w3.org/2000/svg" xmlns:xlink="http://www.w3.org/1999/xlink" x="0px" y="0px"
	width="24" height="24" viewBox="0 0 32 32" style="enable-background:new 0 0 32 32;" xml:space="preserve">
<title>target</title>
<path d="M14.656 25.248c-4.064-0.608-7.296-3.84-7.904-7.904h-2.752c-0.736 0-1.344-0.608-1.344-1.344s0.608-1.344 1.344-1.344h2.752c0.608-4.064 3.84-7.296 7.904-7.904v-2.752c0-0.736 0.608-1.344 1.344-1.344s1.344 0.608 1.344 1.344v2.752c4.064 0.608 7.296 3.84 7.904 7.904h2.752c0.736 0 1.344 0.608 1.344 1.344s-0.608 1.344-1.344 1.344h-2.752c-0.608 4.064-3.84 7.296-7.904 7.904v2.752c0 0.736-0.608 1.344-1.344 1.344s-1.344-0.608-1.344-1.344v-2.752zM16 22.656c3.68 0 6.656-2.976 6.656-6.656s-2.976-6.656-6.656-6.656c-3.68 0-6.656 2.976-6.656 6.656s2.976 6.656 6.656 6.656zM16 18.656c-1.472 0-2.656-1.184-2.656-2.656s1.184-2.656 2.656-2.656c1.472 0 2.656 1.184 2.656 2.656s-1.184 2.656-2.656 2.656z"></path>
</svg>
